{
    "data": [
        {
            "id": 1,
            "name": "آذربايجان شرقي",
            "status": 0,
            "cities": [
                {
                    "id": 1,
                    "province_id": 1,
                    "name": "آذر شهر"
                },
                {
                    "id": 2,
                    "province_id": 1,
                    "name": "اسكو"
                },
                {
                    "id": 3,
                    "province_id": 1,
                    "name": "اهر"
                },
                {
                    "id": 4,
                    "province_id": 1,
                    "name": "بستان آباد"
                },
                {
                    "id": 5,
                    "province_id": 1,
                    "name": "بناب"
                },
                {
                    "id": 6,
                    "province_id": 1,
                    "name": "بندر شرفخانه"
                },
                {
                    "id": 7,
                    "province_id": 1,
                    "name": "تبريز"
                },
                {
                    "id": 8,
                    "province_id": 1,
                    "name": "تسوج"
                },
                {
                    "id": 9,
                    "province_id": 1,
                    "name": "جلفا"
                },
                {
                    "id": 10,
                    "province_id": 1,
                    "name": "سراب"
                },
                {
                    "id": 11,
                    "province_id": 1,
                    "name": "شبستر"
                },
                {
                    "id": 12,
                    "province_id": 1,
                    "name": "صوفیان"
                },
                {
                    "id": 13,
                    "province_id": 1,
                    "name": "عجبشير"
                },
                {
                    "id": 14,
                    "province_id": 1,
                    "name": "قره آغاج"
                },
                {
                    "id": 15,
                    "province_id": 1,
                    "name": "كليبر"
                },
                {
                    "id": 16,
                    "province_id": 1,
                    "name": "كندوان"
                },
                {
                    "id": 17,
                    "province_id": 1,
                    "name": "مراغه"
                },
                {
                    "id": 18,
                    "province_id": 1,
                    "name": "مرند"
                },
                {
                    "id": 19,
                    "province_id": 1,
                    "name": "ملكان"
                },
                {
                    "id": 20,
                    "province_id": 1,
                    "name": "ممقان"
                },
                {
                    "id": 21,
                    "province_id": 1,
                    "name": "ميانه"
                },
                {
                    "id": 22,
                    "province_id": 1,
                    "name": "هاديشهر"
                },
                {
                    "id": 23,
                    "province_id": 1,
                    "name": "هريس"
                },
                {
                    "id": 24,
                    "province_id": 1,
                    "name": "هشترود"
                },
                {
                    "id": 25,
                    "province_id": 1,
                    "name": "ورزقان"
                }
            ]
        },
        {
            "id": 2,
            "name": "آذربايجان غربي",
            "status": 0,
            "cities": [
                {
                    "id": 26,
                    "province_id": 2,
                    "name": "اروميه"
                },
                {
                    "id": 27,
                    "province_id": 2,
                    "name": "اشنويه"
                },
                {
                    "id": 28,
                    "province_id": 2,
                    "name": "بازرگان"
                },
                {
                    "id": 29,
                    "province_id": 2,
                    "name": "بوكان"
                },
                {
                    "id": 30,
                    "province_id": 2,
                    "name": "پلدشت"
                },
                {
                    "id": 31,
                    "province_id": 2,
                    "name": "پيرانشهر"
                },
                {
                    "id": 32,
                    "province_id": 2,
                    "name": "تكاب"
                },
                {
                    "id": 33,
                    "province_id": 2,
                    "name": "خوي"
                },
                {
                    "id": 34,
                    "province_id": 2,
                    "name": "سردشت"
                },
                {
                    "id": 35,
                    "province_id": 2,
                    "name": "سلماس"
                },
                {
                    "id": 36,
                    "province_id": 2,
                    "name": "سيه چشمه- چالدران"
                },
                {
                    "id": 37,
                    "province_id": 2,
                    "name": "سیمینه"
                },
                {
                    "id": 38,
                    "province_id": 2,
                    "name": "شاهين دژ"
                },
                {
                    "id": 39,
                    "province_id": 2,
                    "name": "شوط"
                },
                {
                    "id": 40,
                    "province_id": 2,
                    "name": "ماكو"
                },
                {
                    "id": 41,
                    "province_id": 2,
                    "name": "مهاباد"
                },
                {
                    "id": 42,
                    "province_id": 2,
                    "name": "مياندوآب"
                },
                {
                    "id": 43,
                    "province_id": 2,
                    "name": "نقده"
                }
            ]
        },
        {
            "id": 3,
            "name": "اردبيل",
            "status": 0,
            "cities": [
                {
                    "id": 44,
                    "province_id": 3,
                    "name": "اردبيل"
                },
                {
                    "id": 45,
                    "province_id": 3,
                    "name": "بيله سوار"
                },
                {
                    "id": 46,
                    "province_id": 3,
                    "name": "پارس آباد"
                },
                {
                    "id": 47,
                    "province_id": 3,
                    "name": "خلخال"
                },
                {
                    "id": 48,
                    "province_id": 3,
                    "name": "سرعين"
                },
                {
                    "id": 49,
                    "province_id": 3,
                    "name": "كيوي (كوثر)"
                },
                {
                    "id": 50,
                    "province_id": 3,
                    "name": "گرمي (مغان)"
                },
                {
                    "id": 51,
                    "province_id": 3,
                    "name": "مشگين شهر"
                },
                {
                    "id": 52,
                    "province_id": 3,
                    "name": "مغان (سمنان)"
                },
                {
                    "id": 53,
                    "province_id": 3,
                    "name": "نمين"
                },
                {
                    "id": 54,
                    "province_id": 3,
                    "name": "نير"
                }
            ]
        },
        {
            "id": 4,
            "name": "اصفهان",
            "status": 0,
            "cities": [
                {
                    "id": 55,
                    "province_id": 4,
                    "name": "آران و بيدگل"
                },
                {
                    "id": 56,
                    "province_id": 4,
                    "name": "اردستان"
                },
                {
                    "id": 57,
                    "province_id": 4,
                    "name": "اصفهان"
                },
                {
                    "id": 58,
                    "province_id": 4,
                    "name": "باغ بهادران"
                },
                {
                    "id": 59,
                    "province_id": 4,
                    "name": "تيران"
                },
                {
                    "id": 60,
                    "province_id": 4,
                    "name": "خميني شهر"
                },
                {
                    "id": 61,
                    "province_id": 4,
                    "name": "خوانسار"
                },
                {
                    "id": 62,
                    "province_id": 4,
                    "name": "دهاقان"
                },
                {
                    "id": 63,
                    "province_id": 4,
                    "name": "دولت آباد-اصفهان"
                },
                {
                    "id": 64,
                    "province_id": 4,
                    "name": "زرين شهر"
                },
                {
                    "id": 65,
                    "province_id": 4,
                    "name": "زيباشهر (محمديه)"
                },
                {
                    "id": 66,
                    "province_id": 4,
                    "name": "سميرم"
                },
                {
                    "id": 67,
                    "province_id": 4,
                    "name": "شاهين شهر"
                },
                {
                    "id": 68,
                    "province_id": 4,
                    "name": "شهرضا"
                },
                {
                    "id": 69,
                    "province_id": 4,
                    "name": "فريدن"
                },
                {
                    "id": 70,
                    "province_id": 4,
                    "name": "فريدون شهر"
                },
                {
                    "id": 71,
                    "province_id": 4,
                    "name": "فلاورجان"
                },
                {
                    "id": 72,
                    "province_id": 4,
                    "name": "فولاد شهر"
                },
                {
                    "id": 73,
                    "province_id": 4,
                    "name": "قهدریجان"
                },
                {
                    "id": 74,
                    "province_id": 4,
                    "name": "كاشان"
                },
                {
                    "id": 75,
                    "province_id": 4,
                    "name": "گلپايگان"
                },
                {
                    "id": 76,
                    "province_id": 4,
                    "name": "گلدشت اصفهان"
                },
                {
                    "id": 77,
                    "province_id": 4,
                    "name": "گلدشت مركزی"
                },
                {
                    "id": 78,
                    "province_id": 4,
                    "name": "مباركه اصفهان"
                },
                {
                    "id": 79,
                    "province_id": 4,
                    "name": "مهاباد-اصفهان"
                },
                {
                    "id": 80,
                    "province_id": 4,
                    "name": "نايين"
                },
                {
                    "id": 81,
                    "province_id": 4,
                    "name": "نجف آباد"
                },
                {
                    "id": 82,
                    "province_id": 4,
                    "name": "نطنز"
                },
                {
                    "id": 83,
                    "province_id": 4,
                    "name": "هرند"
                }
            ]
        },
        {
            "id": 5,
            "name": "البرز",
            "status": 0,
            "cities": [
                {
                    "id": 84,
                    "province_id": 5,
                    "name": "آسارا"
                },
                {
                    "id": 85,
                    "province_id": 5,
                    "name": "اشتهارد"
                },
                {
                    "id": 86,
                    "province_id": 5,
                    "name": "شهر جديد هشتگرد"
                },
                {
                    "id": 87,
                    "province_id": 5,
                    "name": "طالقان"
                },
                {
                    "id": 88,
                    "province_id": 5,
                    "name": "كرج"
                },
                {
                    "id": 89,
                    "province_id": 5,
                    "name": "گلستان تهران"
                },
                {
                    "id": 90,
                    "province_id": 5,
                    "name": "نظرآباد"
                },
                {
                    "id": 91,
                    "province_id": 5,
                    "name": "هشتگرد"
                }
            ]
        },
        {
            "id": 6,
            "name": "ايلام",
            "status": 0,
            "cities": [
                {
                    "id": 92,
                    "province_id": 6,
                    "name": "آبدانان"
                },
                {
                    "id": 93,
                    "province_id": 6,
                    "name": "ايلام"
                },
                {
                    "id": 94,
                    "province_id": 6,
                    "name": "ايوان"
                },
                {
                    "id": 95,
                    "province_id": 6,
                    "name": "دره شهر"
                },
                {
                    "id": 96,
                    "province_id": 6,
                    "name": "دهلران"
                },
                {
                    "id": 97,
                    "province_id": 6,
                    "name": "سرابله"
                },
                {
                    "id": 98,
                    "province_id": 6,
                    "name": "شيروان چرداول"
                },
                {
                    "id": 99,
                    "province_id": 6,
                    "name": "مهران"
                }
            ]
        },
        {
            "id": 7,
            "name": "بوشهر",
            "status": 0,
            "cities": [
                {
                    "id": 100,
                    "province_id": 7,
                    "name": "آبپخش"
                },
                {
                    "id": 101,
                    "province_id": 7,
                    "name": "اهرم"
                },
                {
                    "id": 102,
                    "province_id": 7,
                    "name": "برازجان"
                },
                {
                    "id": 103,
                    "province_id": 7,
                    "name": "بندر دير"
                },
                {
                    "id": 104,
                    "province_id": 7,
                    "name": "بندر ديلم"
                },
                {
                    "id": 105,
                    "province_id": 7,
                    "name": "بندر كنگان"
                },
                {
                    "id": 106,
                    "province_id": 7,
                    "name": "بندر گناوه"
                },
                {
                    "id": 107,
                    "province_id": 7,
                    "name": "بوشهر"
                },
                {
                    "id": 108,
                    "province_id": 7,
                    "name": "تنگستان"
                },
                {
                    "id": 109,
                    "province_id": 7,
                    "name": "جزيره خارك"
                },
                {
                    "id": 110,
                    "province_id": 7,
                    "name": "جم (ولايت)"
                },
                {
                    "id": 111,
                    "province_id": 7,
                    "name": "خورموج"
                },
                {
                    "id": 112,
                    "province_id": 7,
                    "name": "دشتستان - شبانکاره"
                },
                {
                    "id": 113,
                    "province_id": 7,
                    "name": "دلوار"
                },
                {
                    "id": 114,
                    "province_id": 7,
                    "name": "عسلویه"
                }
            ]
        },
        {
            "id": 8,
            "name": "تهران",
            "status": 0,
            "cities": [
                {
                    "id": 115,
                    "province_id": 8,
                    "name": "اسلامشهر"
                },
                {
                    "id": 116,
                    "province_id": 8,
                    "name": "بومهن"
                },
                {
                    "id": 117,
                    "province_id": 8,
                    "name": "پاكدشت"
                },
                {
                    "id": 118,
                    "province_id": 8,
                    "name": "تهران"
                },
                {
                    "id": 119,
                    "province_id": 8,
                    "name": "چهاردانگه"
                },
                {
                    "id": 120,
                    "province_id": 8,
                    "name": "دماوند"
                },
                {
                    "id": 121,
                    "province_id": 8,
                    "name": "رودهن"
                },
                {
                    "id": 122,
                    "province_id": 8,
                    "name": "ري"
                },
                {
                    "id": 123,
                    "province_id": 8,
                    "name": "شريف آباد"
                },
                {
                    "id": 124,
                    "province_id": 8,
                    "name": "شهر رباط كريم"
                },
                {
                    "id": 125,
                    "province_id": 8,
                    "name": "شهر شهريار"
                },
                {
                    "id": 126,
                    "province_id": 8,
                    "name": "فشم"
                },
                {
                    "id": 127,
                    "province_id": 8,
                    "name": "فيروزكوه"
                },
                {
                    "id": 128,
                    "province_id": 8,
                    "name": "قدس"
                },
                {
                    "id": 129,
                    "province_id": 8,
                    "name": "كهريزك"
                },
                {
                    "id": 130,
                    "province_id": 8,
                    "name": "لواسان بزرگ"
                },
                {
                    "id": 131,
                    "province_id": 8,
                    "name": "ملارد"
                },
                {
                    "id": 132,
                    "province_id": 8,
                    "name": "ورامين"
                }
            ]
        },
        {
            "id": 9,
            "name": "چهارمحال بختياري",
            "status": 0,
            "cities": [
                {
                    "id": 133,
                    "province_id": 9,
                    "name": "اردل"
                },
                {
                    "id": 134,
                    "province_id": 9,
                    "name": "بروجن"
                },
                {
                    "id": 135,
                    "province_id": 9,
                    "name": "چلگرد (كوهرنگ)"
                },
                {
                    "id": 136,
                    "province_id": 9,
                    "name": "سامان"
                },
                {
                    "id": 137,
                    "province_id": 9,
                    "name": "شهركرد"
                },
                {
                    "id": 138,
                    "province_id": 9,
                    "name": "فارسان"
                },
                {
                    "id": 139,
                    "province_id": 9,
                    "name": "لردگان"
                }
            ]
        },
        {
            "id": 10,
            "name": "خراسان جنوبي",
            "status": 0,
            "cities": [
                {
                    "id": 140,
                    "province_id": 10,
                    "name": "بشرویه"
                },
                {
                    "id": 141,
                    "province_id": 10,
                    "name": "بيرجند"
                },
                {
                    "id": 142,
                    "province_id": 10,
                    "name": "خضری"
                },
                {
                    "id": 143,
                    "province_id": 10,
                    "name": "خوسف"
                },
                {
                    "id": 144,
                    "province_id": 10,
                    "name": "سرایان"
                },
                {
                    "id": 145,
                    "province_id": 10,
                    "name": "سربيشه"
                },
                {
                    "id": 146,
                    "province_id": 10,
                    "name": "طبس"
                },
                {
                    "id": 147,
                    "province_id": 10,
                    "name": "فردوس"
                },
                {
                    "id": 148,
                    "province_id": 10,
                    "name": "قائن"
                },
                {
                    "id": 149,
                    "province_id": 10,
                    "name": "نهبندان"
                }
            ]
        },
        {
            "id": 11,
            "name": "خراسان رضوي",
            "status": 0,
            "cities": [
                {
                    "id": 150,
                    "province_id": 11,
                    "name": "بجستان"
                },
                {
                    "id": 151,
                    "province_id": 11,
                    "name": "بردسكن"
                },
                {
                    "id": 152,
                    "province_id": 11,
                    "name": "تايباد"
                },
                {
                    "id": 153,
                    "province_id": 11,
                    "name": "تربت جام"
                },
                {
                    "id": 154,
                    "province_id": 11,
                    "name": "تربت حيدريه"
                },
                {
                    "id": 155,
                    "province_id": 11,
                    "name": "جغتای"
                },
                {
                    "id": 156,
                    "province_id": 11,
                    "name": "جوین"
                },
                {
                    "id": 157,
                    "province_id": 11,
                    "name": "چناران"
                },
                {
                    "id": 158,
                    "province_id": 11,
                    "name": "خلیل آباد"
                },
                {
                    "id": 159,
                    "province_id": 11,
                    "name": "خواف"
                },
                {
                    "id": 160,
                    "province_id": 11,
                    "name": "درگز"
                },
                {
                    "id": 161,
                    "province_id": 11,
                    "name": "رشتخوار"
                },
                {
                    "id": 162,
                    "province_id": 11,
                    "name": "سبزوار"
                },
                {
                    "id": 163,
                    "province_id": 11,
                    "name": "سرخس"
                },
                {
                    "id": 164,
                    "province_id": 11,
                    "name": "طبس"
                },
                {
                    "id": 165,
                    "province_id": 11,
                    "name": "طرقبه"
                },
                {
                    "id": 166,
                    "province_id": 11,
                    "name": "فريمان"
                },
                {
                    "id": 167,
                    "province_id": 11,
                    "name": "قوچان"
                },
                {
                    "id": 168,
                    "province_id": 11,
                    "name": "كاشمر"
                },
                {
                    "id": 169,
                    "province_id": 11,
                    "name": "كلات"
                },
                {
                    "id": 170,
                    "province_id": 11,
                    "name": "گناباد"
                },
                {
                    "id": 171,
                    "province_id": 11,
                    "name": "مشهد"
                },
                {
                    "id": 172,
                    "province_id": 11,
                    "name": "نيشابور"
                }
            ]
        },
        {
            "id": 12,
            "name": "خراسان شمالي",
            "status": 0,
            "cities": [
                {
                    "id": 173,
                    "province_id": 12,
                    "name": "آشخانه، مانه و سمرقان"
                },
                {
                    "id": 174,
                    "province_id": 12,
                    "name": "اسفراين"
                },
                {
                    "id": 175,
                    "province_id": 12,
                    "name": "بجنورد"
                },
                {
                    "id": 176,
                    "province_id": 12,
                    "name": "جاجرم"
                },
                {
                    "id": 177,
                    "province_id": 12,
                    "name": "شيروان"
                },
                {
                    "id": 178,
                    "province_id": 12,
                    "name": "فاروج"
                }
            ]
        },
        {
            "id": 13,
            "name": "خوزستان",
            "status": 0,
            "cities": [
                {
                    "id": 179,
                    "province_id": 13,
                    "name": "آبادان"
                },
                {
                    "id": 180,
                    "province_id": 13,
                    "name": "اميديه"
                },
                {
                    "id": 181,
                    "province_id": 13,
                    "name": "انديمشك"
                },
                {
                    "id": 182,
                    "province_id": 13,
                    "name": "اهواز"
                },
                {
                    "id": 183,
                    "province_id": 13,
                    "name": "ايذه"
                },
                {
                    "id": 184,
                    "province_id": 13,
                    "name": "باغ ملك"
                },
                {
                    "id": 185,
                    "province_id": 13,
                    "name": "بستان"
                },
                {
                    "id": 186,
                    "province_id": 13,
                    "name": "بندر ماهشهر"
                },
                {
                    "id": 187,
                    "province_id": 13,
                    "name": "بندرامام خميني"
                },
                {
                    "id": 188,
                    "province_id": 13,
                    "name": "بهبهان"
                },
                {
                    "id": 189,
                    "province_id": 13,
                    "name": "خرمشهر"
                },
                {
                    "id": 190,
                    "province_id": 13,
                    "name": "دزفول"
                },
                {
                    "id": 191,
                    "province_id": 13,
                    "name": "رامشیر"
                },
                {
                    "id": 192,
                    "province_id": 13,
                    "name": "رامهرمز"
                },
                {
                    "id": 193,
                    "province_id": 13,
                    "name": "سوسنگرد"
                },
                {
                    "id": 194,
                    "province_id": 13,
                    "name": "شادگان"
                },
                {
                    "id": 195,
                    "province_id": 13,
                    "name": "شوش"
                },
                {
                    "id": 196,
                    "province_id": 13,
                    "name": "شوشتر"
                },
                {
                    "id": 197,
                    "province_id": 13,
                    "name": "لالي"
                },
                {
                    "id": 198,
                    "province_id": 13,
                    "name": "مسجد سليمان"
                },
                {
                    "id": 199,
                    "province_id": 13,
                    "name": "هنديجان"
                },
                {
                    "id": 200,
                    "province_id": 13,
                    "name": "هويزه"
                }
            ]
        },
        {
            "id": 14,
            "name": "زنجان",
            "status": 0,
            "cities": [
                {
                    "id": 201,
                    "province_id": 14,
                    "name": "آب بر (طارم)"
                },
                {
                    "id": 202,
                    "province_id": 14,
                    "name": "ابهر"
                },
                {
                    "id": 203,
                    "province_id": 14,
                    "name": "خرمدره"
                },
                {
                    "id": 204,
                    "province_id": 14,
                    "name": "زرین آباد (ایجرود)"
                },
                {
                    "id": 205,
                    "province_id": 14,
                    "name": "زنجان"
                },
                {
                    "id": 206,
                    "province_id": 14,
                    "name": "قیدار (خدا بنده)"
                },
                {
                    "id": 207,
                    "province_id": 14,
                    "name": "ماهنشان"
                }
            ]
        },
        {
            "id": 15,
            "name": "سمنان",
            "status": 0,
            "cities": [
                {
                    "id": 208,
                    "province_id": 15,
                    "name": "ايوانكي"
                },
                {
                    "id": 209,
                    "province_id": 15,
                    "name": "بسطام"
                },
                {
                    "id": 210,
                    "province_id": 15,
                    "name": "دامغان"
                },
                {
                    "id": 211,
                    "province_id": 15,
                    "name": "سرخه"
                },
                {
                    "id": 212,
                    "province_id": 15,
                    "name": "سمنان"
                },
                {
                    "id": 213,
                    "province_id": 15,
                    "name": "شاهرود"
                },
                {
                    "id": 214,
                    "province_id": 15,
                    "name": "شهمیرزاد"
                },
                {
                    "id": 215,
                    "province_id": 15,
                    "name": "گرمسار"
                },
                {
                    "id": 216,
                    "province_id": 15,
                    "name": "مهدیشهر"
                }
            ]
        },
        {
            "id": 16,
            "name": "سيستان و بلوچستان",
            "status": 0,
            "cities": [
                {
                    "id": 217,
                    "province_id": 16,
                    "name": "ايرانشهر"
                },
                {
                    "id": 218,
                    "province_id": 16,
                    "name": "چابهار"
                },
                {
                    "id": 219,
                    "province_id": 16,
                    "name": "خاش"
                },
                {
                    "id": 220,
                    "province_id": 16,
                    "name": "راسك"
                },
                {
                    "id": 221,
                    "province_id": 16,
                    "name": "زابل"
                },
                {
                    "id": 222,
                    "province_id": 16,
                    "name": "زاهدان"
                },
                {
                    "id": 223,
                    "province_id": 16,
                    "name": "سراوان"
                },
                {
                    "id": 224,
                    "province_id": 16,
                    "name": "سرباز"
                },
                {
                    "id": 225,
                    "province_id": 16,
                    "name": "ميرجاوه"
                },
                {
                    "id": 226,
                    "province_id": 16,
                    "name": "نيكشهر"
                }
            ]
        },
        {
            "id": 17,
            "name": "فارس",
            "status": 0,
            "cities": [
                {
                    "id": 227,
                    "province_id": 17,
                    "name": "آباده"
                },
                {
                    "id": 228,
                    "province_id": 17,
                    "name": "آباده طشك"
                },
                {
                    "id": 229,
                    "province_id": 17,
                    "name": "اردكان"
                },
                {
                    "id": 230,
                    "province_id": 17,
                    "name": "ارسنجان"
                },
                {
                    "id": 231,
                    "province_id": 17,
                    "name": "استهبان"
                },
                {
                    "id": 232,
                    "province_id": 17,
                    "name": "اشكنان"
                },
                {
                    "id": 233,
                    "province_id": 17,
                    "name": "اقليد"
                },
                {
                    "id": 234,
                    "province_id": 17,
                    "name": "اوز"
                },
                {
                    "id": 235,
                    "province_id": 17,
                    "name": "ایج"
                },
                {
                    "id": 236,
                    "province_id": 17,
                    "name": "ایزد خواست"
                },
                {
                    "id": 237,
                    "province_id": 17,
                    "name": "باب انار"
                },
                {
                    "id": 238,
                    "province_id": 17,
                    "name": "بالاده"
                },
                {
                    "id": 239,
                    "province_id": 17,
                    "name": "بنارويه"
                },
                {
                    "id": 240,
                    "province_id": 17,
                    "name": "بهمن"
                },
                {
                    "id": 241,
                    "province_id": 17,
                    "name": "بوانات"
                },
                {
                    "id": 242,
                    "province_id": 17,
                    "name": "بيرم"
                },
                {
                    "id": 243,
                    "province_id": 17,
                    "name": "بیضا"
                },
                {
                    "id": 244,
                    "province_id": 17,
                    "name": "جنت شهر"
                },
                {
                    "id": 245,
                    "province_id": 17,
                    "name": "جهرم"
                },
                {
                    "id": 246,
                    "province_id": 17,
                    "name": "حاجي آباد-زرین دشت"
                },
                {
                    "id": 247,
                    "province_id": 17,
                    "name": "خاوران"
                },
                {
                    "id": 248,
                    "province_id": 17,
                    "name": "خرامه"
                },
                {
                    "id": 249,
                    "province_id": 17,
                    "name": "خشت"
                },
                {
                    "id": 250,
                    "province_id": 17,
                    "name": "خفر"
                },
                {
                    "id": 251,
                    "province_id": 17,
                    "name": "خنج"
                },
                {
                    "id": 252,
                    "province_id": 17,
                    "name": "خور"
                },
                {
                    "id": 253,
                    "province_id": 17,
                    "name": "داراب"
                },
                {
                    "id": 254,
                    "province_id": 17,
                    "name": "رونيز عليا"
                },
                {
                    "id": 255,
                    "province_id": 17,
                    "name": "زاهدشهر"
                },
                {
                    "id": 256,
                    "province_id": 17,
                    "name": "زرقان"
                },
                {
                    "id": 257,
                    "province_id": 17,
                    "name": "سده"
                },
                {
                    "id": 258,
                    "province_id": 17,
                    "name": "سروستان"
                },
                {
                    "id": 259,
                    "province_id": 17,
                    "name": "سعادت شهر"
                },
                {
                    "id": 260,
                    "province_id": 17,
                    "name": "سورمق"
                },
                {
                    "id": 261,
                    "province_id": 17,
                    "name": "ششده"
                },
                {
                    "id": 262,
                    "province_id": 17,
                    "name": "شيراز"
                },
                {
                    "id": 263,
                    "province_id": 17,
                    "name": "صغاد"
                },
                {
                    "id": 264,
                    "province_id": 17,
                    "name": "صفاشهر"
                },
                {
                    "id": 265,
                    "province_id": 17,
                    "name": "علاء مرودشت"
                },
                {
                    "id": 266,
                    "province_id": 17,
                    "name": "عنبر"
                },
                {
                    "id": 267,
                    "province_id": 17,
                    "name": "فراشبند"
                },
                {
                    "id": 268,
                    "province_id": 17,
                    "name": "فسا"
                },
                {
                    "id": 269,
                    "province_id": 17,
                    "name": "فيروز آباد"
                },
                {
                    "id": 270,
                    "province_id": 17,
                    "name": "قائميه"
                },
                {
                    "id": 271,
                    "province_id": 17,
                    "name": "قادر آباد"
                },
                {
                    "id": 272,
                    "province_id": 17,
                    "name": "قطب آباد"
                },
                {
                    "id": 273,
                    "province_id": 17,
                    "name": "قير"
                },
                {
                    "id": 274,
                    "province_id": 17,
                    "name": "كازرون"
                },
                {
                    "id": 275,
                    "province_id": 17,
                    "name": "كنار تخته"
                },
                {
                    "id": 276,
                    "province_id": 17,
                    "name": "گراش"
                },
                {
                    "id": 277,
                    "province_id": 17,
                    "name": "لار"
                },
                {
                    "id": 278,
                    "province_id": 17,
                    "name": "لامرد"
                },
                {
                    "id": 279,
                    "province_id": 17,
                    "name": "لپوئی"
                },
                {
                    "id": 280,
                    "province_id": 17,
                    "name": "لطيفي"
                },
                {
                    "id": 281,
                    "province_id": 17,
                    "name": "مبارك آباد ديز"
                },
                {
                    "id": 282,
                    "province_id": 17,
                    "name": "مرودشت"
                },
                {
                    "id": 283,
                    "province_id": 17,
                    "name": "مشكان"
                },
                {
                    "id": 284,
                    "province_id": 17,
                    "name": "مصير"
                },
                {
                    "id": 285,
                    "province_id": 17,
                    "name": "مهر فارس(گله دار)"
                },
                {
                    "id": 286,
                    "province_id": 17,
                    "name": "ميمند"
                },
                {
                    "id": 287,
                    "province_id": 17,
                    "name": "نوبندگان"
                },
                {
                    "id": 288,
                    "province_id": 17,
                    "name": "نودان"
                },
                {
                    "id": 289,
                    "province_id": 17,
                    "name": "نورآباد"
                },
                {
                    "id": 290,
                    "province_id": 17,
                    "name": "ني ريز"
                },
                {
                    "id": 291,
                    "province_id": 17,
                    "name": "کوار"
                }
            ]
        },
        {
            "id": 18,
            "name": "قزوين",
            "status": 0,
            "cities": [
                {
                    "id": 292,
                    "province_id": 18,
                    "name": "آبيك"
                },
                {
                    "id": 293,
                    "province_id": 18,
                    "name": "البرز"
                },
                {
                    "id": 294,
                    "province_id": 18,
                    "name": "بوئين زهرا"
                },
                {
                    "id": 295,
                    "province_id": 18,
                    "name": "تاكستان"
                },
                {
                    "id": 296,
                    "province_id": 18,
                    "name": "قزوين"
                },
                {
                    "id": 297,
                    "province_id": 18,
                    "name": "محمود آباد نمونه"
                }
            ]
        },
        {
            "id": 19,
            "name": "قم",
            "status": 0,
            "cities": [
                {
                    "id": 298,
                    "province_id": 19,
                    "name": "قم"
                }
            ]
        },
        {
            "id": 20,
            "name": "كردستان",
            "status": 0,
            "cities": [
                {
                    "id": 299,
                    "province_id": 20,
                    "name": "بانه"
                },
                {
                    "id": 300,
                    "province_id": 20,
                    "name": "بيجار"
                },
                {
                    "id": 301,
                    "province_id": 20,
                    "name": "دهگلان"
                },
                {
                    "id": 302,
                    "province_id": 20,
                    "name": "ديواندره"
                },
                {
                    "id": 303,
                    "province_id": 20,
                    "name": "سقز"
                },
                {
                    "id": 304,
                    "province_id": 20,
                    "name": "سنندج"
                },
                {
                    "id": 305,
                    "province_id": 20,
                    "name": "قروه"
                },
                {
                    "id": 306,
                    "province_id": 20,
                    "name": "كامياران"
                },
                {
                    "id": 307,
                    "province_id": 20,
                    "name": "مريوان"
                }
            ]
        },
        {
            "id": 21,
            "name": "كرمان",
            "status": 0,
            "cities": [
                {
                    "id": 308,
                    "province_id": 21,
                    "name": "بابك"
                },
                {
                    "id": 309,
                    "province_id": 21,
                    "name": "بافت"
                },
                {
                    "id": 310,
                    "province_id": 21,
                    "name": "بردسير"
                },
                {
                    "id": 311,
                    "province_id": 21,
                    "name": "بم"
                },
                {
                    "id": 312,
                    "province_id": 21,
                    "name": "جيرفت"
                },
                {
                    "id": 313,
                    "province_id": 21,
                    "name": "راور"
                },
                {
                    "id": 314,
                    "province_id": 21,
                    "name": "رفسنجان"
                },
                {
                    "id": 315,
                    "province_id": 21,
                    "name": "زرند"
                },
                {
                    "id": 316,
                    "province_id": 21,
                    "name": "سيرجان"
                },
                {
                    "id": 317,
                    "province_id": 21,
                    "name": "كرمان"
                },
                {
                    "id": 318,
                    "province_id": 21,
                    "name": "كهنوج"
                },
                {
                    "id": 319,
                    "province_id": 21,
                    "name": "منوجان"
                }
            ]
        },
        {
            "id": 22,
            "name": "كرمانشاه",
            "status": 0,
            "cities": [
                {
                    "id": 320,
                    "province_id": 22,
                    "name": "اسلام آباد غرب"
                },
                {
                    "id": 321,
                    "province_id": 22,
                    "name": "پاوه"
                },
                {
                    "id": 322,
                    "province_id": 22,
                    "name": "تازه آباد- ثلاث باباجانی"
                },
                {
                    "id": 323,
                    "province_id": 22,
                    "name": "جوانرود"
                },
                {
                    "id": 324,
                    "province_id": 22,
                    "name": "سر پل ذهاب"
                },
                {
                    "id": 325,
                    "province_id": 22,
                    "name": "سنقر كليائي"
                },
                {
                    "id": 326,
                    "province_id": 22,
                    "name": "صحنه"
                },
                {
                    "id": 327,
                    "province_id": 22,
                    "name": "قصر شيرين"
                },
                {
                    "id": 328,
                    "province_id": 22,
                    "name": "كرمانشاه"
                },
                {
                    "id": 329,
                    "province_id": 22,
                    "name": "كنگاور"
                },
                {
                    "id": 330,
                    "province_id": 22,
                    "name": "گيلان غرب"
                },
                {
                    "id": 331,
                    "province_id": 22,
                    "name": "هرسين"
                }
            ]
        },
        {
            "id": 23,
            "name": "كهكيلويه و بويراحمد",
            "status": 0,
            "cities": [
                {
                    "id": 332,
                    "province_id": 23,
                    "name": "دهدشت"
                },
                {
                    "id": 333,
                    "province_id": 23,
                    "name": "دوگنبدان"
                },
                {
                    "id": 334,
                    "province_id": 23,
                    "name": "سي سخت- دنا"
                },
                {
                    "id": 335,
                    "province_id": 23,
                    "name": "گچساران"
                },
                {
                    "id": 336,
                    "province_id": 23,
                    "name": "ياسوج"
                }
            ]
        },
        {
            "id": 24,
            "name": "گلستان",
            "status": 0,
            "cities": [
                {
                    "id": 337,
                    "province_id": 24,
                    "name": "آزاد شهر"
                },
                {
                    "id": 338,
                    "province_id": 24,
                    "name": "آق قلا"
                },
                {
                    "id": 339,
                    "province_id": 24,
                    "name": "انبارآلوم"
                },
                {
                    "id": 340,
                    "province_id": 24,
                    "name": "اینچه برون"
                },
                {
                    "id": 341,
                    "province_id": 24,
                    "name": "بندر گز"
                },
                {
                    "id": 342,
                    "province_id": 24,
                    "name": "تركمن"
                },
                {
                    "id": 343,
                    "province_id": 24,
                    "name": "جلین"
                },
                {
                    "id": 344,
                    "province_id": 24,
                    "name": "خان ببین"
                },
                {
                    "id": 345,
                    "province_id": 24,
                    "name": "راميان"
                },
                {
                    "id": 346,
                    "province_id": 24,
                    "name": "سرخس کلاته"
                },
                {
                    "id": 347,
                    "province_id": 24,
                    "name": "سیمین شهر"
                },
                {
                    "id": 348,
                    "province_id": 24,
                    "name": "علي آباد كتول"
                },
                {
                    "id": 349,
                    "province_id": 24,
                    "name": "فاضل آباد"
                },
                {
                    "id": 350,
                    "province_id": 24,
                    "name": "كردكوي"
                },
                {
                    "id": 351,
                    "province_id": 24,
                    "name": "كلاله"
                },
                {
                    "id": 352,
                    "province_id": 24,
                    "name": "گالیکش"
                },
                {
                    "id": 353,
                    "province_id": 24,
                    "name": "گرگان"
                },
                {
                    "id": 354,
                    "province_id": 24,
                    "name": "گمیش تپه"
                },
                {
                    "id": 355,
                    "province_id": 24,
                    "name": "گنبد كاووس"
                },
                {
                    "id": 356,
                    "province_id": 24,
                    "name": "مراوه تپه"
                },
                {
                    "id": 357,
                    "province_id": 24,
                    "name": "مينو دشت"
                },
                {
                    "id": 358,
                    "province_id": 24,
                    "name": "نگین شهر"
                },
                {
                    "id": 359,
                    "province_id": 24,
                    "name": "نوده خاندوز"
                },
                {
                    "id": 360,
                    "province_id": 24,
                    "name": "نوکنده"
                }
            ]
        },
        {
            "id": 25,
            "name": "گيلان",
            "status": 0,
            "cities": [
                {
                    "id": 361,
                    "province_id": 25,
                    "name": "آستارا"
                },
                {
                    "id": 362,
                    "province_id": 25,
                    "name": "آستانه اشرفيه"
                },
                {
                    "id": 363,
                    "province_id": 25,
                    "name": "املش"
                },
                {
                    "id": 364,
                    "province_id": 25,
                    "name": "بندرانزلي"
                },
                {
                    "id": 365,
                    "province_id": 25,
                    "name": "خمام"
                },
                {
                    "id": 366,
                    "province_id": 25,
                    "name": "رشت"
                },
                {
                    "id": 367,
                    "province_id": 25,
                    "name": "رضوان شهر"
                },
                {
                    "id": 368,
                    "province_id": 25,
                    "name": "رود سر"
                },
                {
                    "id": 369,
                    "province_id": 25,
                    "name": "رودبار"
                },
                {
                    "id": 370,
                    "province_id": 25,
                    "name": "سياهكل"
                },
                {
                    "id": 371,
                    "province_id": 25,
                    "name": "شفت"
                },
                {
                    "id": 372,
                    "province_id": 25,
                    "name": "صومعه سرا"
                },
                {
                    "id": 373,
                    "province_id": 25,
                    "name": "فومن"
                },
                {
                    "id": 374,
                    "province_id": 25,
                    "name": "كلاچاي"
                },
                {
                    "id": 375,
                    "province_id": 25,
                    "name": "لاهيجان"
                },
                {
                    "id": 376,
                    "province_id": 25,
                    "name": "لنگرود"
                },
                {
                    "id": 377,
                    "province_id": 25,
                    "name": "لوشان"
                },
                {
                    "id": 378,
                    "province_id": 25,
                    "name": "ماسال"
                },
                {
                    "id": 379,
                    "province_id": 25,
                    "name": "ماسوله"
                },
                {
                    "id": 380,
                    "province_id": 25,
                    "name": "منجيل"
                },
                {
                    "id": 381,
                    "province_id": 25,
                    "name": "هشتپر"
                }
            ]
        },
        {
            "id": 26,
            "name": "لرستان",
            "status": 0,
            "cities": [
                {
                    "id": 382,
                    "province_id": 26,
                    "name": "ازنا"
                },
                {
                    "id": 383,
                    "province_id": 26,
                    "name": "الشتر"
                },
                {
                    "id": 384,
                    "province_id": 26,
                    "name": "اليگودرز"
                },
                {
                    "id": 385,
                    "province_id": 26,
                    "name": "بروجرد"
                },
                {
                    "id": 386,
                    "province_id": 26,
                    "name": "پلدختر"
                },
                {
                    "id": 387,
                    "province_id": 26,
                    "name": "♦خرم آباد"
                },
                {
                    "id": 388,
                    "province_id": 26,
                    "name": "دورود"
                },
                {
                    "id": 389,
                    "province_id": 26,
                    "name": "سپید دشت"
                },
                {
                    "id": 390,
                    "province_id": 26,
                    "name": "كوهدشت"
                },
                {
                    "id": 391,
                    "province_id": 26,
                    "name": "نورآباد (خوزستان)"
                }
            ]
        },
        {
            "id": 27,
            "name": "مازندران",
            "status": 1,
            "cities": [
                {
                    "id": 392,
                    "province_id": 27,
                    "name": "آمل"
                },
                {
                    "id": 393,
                    "province_id": 27,
                    "name": "بابل"
                },
                {
                    "id": 394,
                    "province_id": 27,
                    "name": "بابلسر"
                },
                {
                    "id": 395,
                    "province_id": 27,
                    "name": "بلده"
                },
                {
                    "id": 396,
                    "province_id": 27,
                    "name": "بهشهر"
                },
                {
                    "id": 397,
                    "province_id": 27,
                    "name": "پل سفيد"
                },
                {
                    "id": 398,
                    "province_id": 27,
                    "name": "تنكابن"
                },
                {
                    "id": 399,
                    "province_id": 27,
                    "name": "جويبار"
                },
                {
                    "id": 400,
                    "province_id": 27,
                    "name": "چالوس"
                },
                {
                    "id": 401,
                    "province_id": 27,
                    "name": "خرم آباد"
                },
                {
                    "id": 402,
                    "province_id": 27,
                    "name": "رامسر"
                },
                {
                    "id": 403,
                    "province_id": 27,
                    "name": "رستم کلا"
                },
                {
                    "id": 404,
                    "province_id": 27,
                    "name": "ساري"
                },
                {
                    "id": 405,
                    "province_id": 27,
                    "name": "سلمانشهر"
                },
                {
                    "id": 406,
                    "province_id": 27,
                    "name": "سواد كوه"
                },
                {
                    "id": 407,
                    "province_id": 27,
                    "name": "فريدون كنار"
                },
                {
                    "id": 408,
                    "province_id": 27,
                    "name": "قائم شهر"
                },
                {
                    "id": 409,
                    "province_id": 27,
                    "name": "گلوگاه"
                },
                {
                    "id": 410,
                    "province_id": 27,
                    "name": "محمودآباد"
                },
                {
                    "id": 411,
                    "province_id": 27,
                    "name": "مرزن آباد"
                },
                {
                    "id": 412,
                    "province_id": 27,
                    "name": "نكا"
                },
                {
                    "id": 413,
                    "province_id": 27,
                    "name": "نور"
                },
                {
                    "id": 414,
                    "province_id": 27,
                    "name": "نوشهر"
                }
            ]
        },
        {
            "id": 28,
            "name": "مركزي",
            "status": 0,
            "cities": [
                {
                    "id": 415,
                    "province_id": 28,
                    "name": "آشتيان"
                },
                {
                    "id": 416,
                    "province_id": 28,
                    "name": "اراك"
                },
                {
                    "id": 417,
                    "province_id": 28,
                    "name": "تفرش"
                },
                {
                    "id": 418,
                    "province_id": 28,
                    "name": "خمين"
                },
                {
                    "id": 419,
                    "province_id": 28,
                    "name": "دليجان"
                },
                {
                    "id": 420,
                    "province_id": 28,
                    "name": "ساوه"
                },
                {
                    "id": 421,
                    "province_id": 28,
                    "name": "شازند"
                },
                {
                    "id": 422,
                    "province_id": 28,
                    "name": "محلات"
                },
                {
                    "id": 423,
                    "province_id": 28,
                    "name": "کمیجان"
                }
            ]
        },
        {
            "id": 29,
            "name": "هرمزگان",
            "status": 0,
            "cities": [
                {
                    "id": 424,
                    "province_id": 29,
                    "name": "ابوموسي"
                },
                {
                    "id": 425,
                    "province_id": 29,
                    "name": "انگهران"
                },
                {
                    "id": 426,
                    "province_id": 29,
                    "name": "بستك"
                },
                {
                    "id": 427,
                    "province_id": 29,
                    "name": "بندر جاسك"
                },
                {
                    "id": 428,
                    "province_id": 29,
                    "name": "بندر لنگه"
                },
                {
                    "id": 429,
                    "province_id": 29,
                    "name": "بندرعباس"
                },
                {
                    "id": 430,
                    "province_id": 29,
                    "name": "پارسیان"
                },
                {
                    "id": 431,
                    "province_id": 29,
                    "name": "حاجي آباد"
                },
                {
                    "id": 432,
                    "province_id": 29,
                    "name": "دشتی"
                },
                {
                    "id": 433,
                    "province_id": 29,
                    "name": "دهبارز (رودان)"
                },
                {
                    "id": 434,
                    "province_id": 29,
                    "name": "قشم"
                },
                {
                    "id": 435,
                    "province_id": 29,
                    "name": "كيش"
                },
                {
                    "id": 436,
                    "province_id": 29,
                    "name": "ميناب"
                }
            ]
        },
        {
            "id": 30,
            "name": "همدان",
            "status": 0,
            "cities": [
                {
                    "id": 437,
                    "province_id": 30,
                    "name": "اسدآباد"
                },
                {
                    "id": 438,
                    "province_id": 30,
                    "name": "بهار"
                },
                {
                    "id": 439,
                    "province_id": 30,
                    "name": "تويسركان"
                },
                {
                    "id": 440,
                    "province_id": 30,
                    "name": "رزن"
                },
                {
                    "id": 441,
                    "province_id": 30,
                    "name": "كبودر اهنگ"
                },
                {
                    "id": 442,
                    "province_id": 30,
                    "name": "ملاير"
                },
                {
                    "id": 443,
                    "province_id": 30,
                    "name": "نهاوند"
                },
                {
                    "id": 444,
                    "province_id": 30,
                    "name": "همدان"
                }
            ]
        },
        {
            "id": 31,
            "name": "يزد",
            "status": 0,
            "cities": [
                {
                    "id": 445,
                    "province_id": 31,
                    "name": "ابركوه"
                },
                {
                    "id": 446,
                    "province_id": 31,
                    "name": "اردكان"
                },
                {
                    "id": 447,
                    "province_id": 31,
                    "name": "اشكذر"
                },
                {
                    "id": 448,
                    "province_id": 31,
                    "name": "بافق"
                },
                {
                    "id": 449,
                    "province_id": 31,
                    "name": "تفت"
                },
                {
                    "id": 450,
                    "province_id": 31,
                    "name": "مهريز"
                },
                {
                    "id": 451,
                    "province_id": 31,
                    "name": "ميبد"
                },
                {
                    "id": 452,
                    "province_id": 31,
                    "name": "هرات"
                },
                {
                    "id": 453,
                    "province_id": 31,
                    "name": "يزد"
                }
            ]
        }
    ]
}